<?xml version="1.0" encoding="iso-8859-1"?>
<!-- Generator: Adobe Illustrator 19.0.0, SVG Export Plug-In . SVG Version: 6.00 Build 0)  -->
<svg version="1.1" id="Capa_1" xmlns="http://www.w3.org/2000/svg" xmlns:xlink="http://www.w3.org/1999/xlink" x="0px" y="0px"
	 viewBox="0 0 499.32 499.32" style="enable-background:new 0 0 499.32 499.32;" xml:space="preserve">
<g>
	<g>
		<g>
			<path d="M249.66,166.624l27.312-27.312L249.66,112l-27.312,27.312L249.66,166.624z M254.348,139.312L249.66,144l-4.688-4.688
				l4.688-4.688L254.348,139.312z"/>
			<rect x="273.66" y="99.312" width="16" height="16"/>
			<rect x="209.66" y="99.312" width="16" height="16"/>
			<path d="M497.66,67.312V49.344l-65.816,59.24c-16.288,14.656-37.32,22.728-59.232,22.728c-20.352,0-40.216,6.064-57.144,17.112
				c9.184-11.04,14.192-24.8,14.192-39.328c0-18.832-8.432-36.376-23.136-48.136l-16.68-13.344
				c-5.384-11.088-13.232-20.664-22.808-30.24L249.66,0l-17.368,17.368c-9.576,9.576-17.424,19.152-22.808,30.24l-16.68,13.344
				c-14.712,11.768-23.144,29.312-23.144,48.144c0,14.536,5.008,28.296,14.192,39.328c-16.928-11.048-36.792-17.112-57.144-17.112
				c-21.912,0-42.944-8.072-59.232-22.728L1.66,49.344v17.968c0,43.2,10.936,86.08,31.624,124.016l10.8,19.8
				c-10.864-0.968-20.96-5.664-28.768-13.472L1.66,184v19.312c0,26.288,9.64,51.096,27.232,70.384
				c-5.424-1.2-10.696-3.064-15.656-5.544L1.66,262.368v12.944c0,27.904,12.632,53.736,34.664,70.872
				c27.464,21.36,61.752,33.128,96.552,33.128h10.16c-17.264,21.008-39.416,37.88-64.528,48.648l-10.856,4.656l8.352,8.352
				c1.4,1.4,34.744,34.344,69.656,34.344c20.008,0,36.952-8.296,48-15.584v18.64c-4.92,5.624-8,12.896-8,20.944h16
				c0-8.824,7.176-16,16-16c8.824,0,16,7.176,16,16h16c0-8.04-3.08-15.312-8-20.944v-80.64l1.344-2.016
				c2.536-3.808,4.76-7.784,6.656-11.888c1.896,4.104,4.12,8.08,6.656,11.888l1.344,2.024v80.64c-4.92,5.624-8,12.896-8,20.944h16
				c0-8.824,7.176-16,16-16c8.824,0,16,7.176,16,16h16c0-8.04-3.08-15.312-8-20.944v-18.64c11.048,7.28,27.992,15.576,48,15.576
				c34.912,0,68.256-32.944,69.656-34.344l8.352-8.352l-10.856-4.656c-25.112-10.768-47.272-27.64-64.528-48.648h10.16
				c34.8,0,69.088-11.768,96.552-33.128c22.032-17.136,34.664-42.968,34.664-70.872v-12.944l-11.576,5.792
				c-4.96,2.48-10.232,4.336-15.656,5.544c17.592-19.296,27.232-44.104,27.232-70.392V184l-13.656,13.656
				c-7.808,7.808-17.896,12.504-28.768,13.472l10.8-19.8C486.724,153.392,497.66,110.512,497.66,67.312z M202.156,74.016
				c-0.288,2.992-0.496,6.048-0.496,9.296h16c0-9.912,1.792-18.2,4.944-25.712l0.056-0.048l-0.024-0.032
				c4.44-10.544,11.624-19.504,20.968-28.848l6.056-6.048l6.056,6.056c9.344,9.344,16.536,18.304,20.968,28.848l-0.024,0.032
				l0.056,0.048c3.152,7.504,4.944,15.792,4.944,25.704h16c0-3.248-0.208-6.304-0.496-9.296
				c10.472,8.704,16.496,21.424,16.496,35.08c0,12.192-4.744,23.656-13.368,32.272l-3.216,3.216
				c-9.944,9.936-15.416,23.16-15.416,37.216c0,10.424,3.056,20.52,9.128,29.624c4.496,6.744,6.872,14.592,6.872,22.704
				c0,3.152-0.384,6.248-1.088,9.264c-11.384-9.128-21.6-19.664-30.352-31.336l-16.56-22.08l-16.552,22.08
				c-8.752,11.672-18.968,22.216-30.352,31.336c-0.704-3.008-1.096-6.112-1.096-9.264c0-8.112,2.376-15.96,7.16-23.136
				c5.784-8.672,8.84-18.768,8.84-29.192c0-14.056-5.472-27.28-15.416-37.216l-3.216-3.216c-8.624-8.624-13.368-20.08-13.368-32.272
				C185.66,95.44,191.684,82.72,202.156,74.016z M289.54,258.48c-2.512,3.392-5.504,6.448-9.024,8.96l-2.08,1.488
				c-1.768-3.776-4.216-7.192-7.256-10.088c2.488-3.344,4.552-6.984,6.184-10.832c3.016,2.752,6.12,5.416,9.312,7.968
				C287.668,256.768,288.596,257.632,289.54,258.48z M239.556,270.056c0.552,0.4,1.064,0.848,1.64,1.224l8.464,5.648l8.472-5.648
				c0.568-0.384,1.088-0.824,1.64-1.224c2.52,2.272,4.328,5.2,5.232,8.472L249.66,289.48l-15.336-10.952
				C235.228,275.256,237.028,272.328,239.556,270.056z M234.7,235.096c3.912-4.328,7.704-8.768,11.208-13.44l3.752-5.008l3.76,5.008
				c3.504,4.672,7.288,9.112,11.208,13.44c-1.992,9.136-7.192,17.264-14.968,22.6C241.884,252.36,236.684,244.232,234.7,235.096z
				 M228.14,258.832c-3.04,2.896-5.496,6.312-7.264,10.096l-2.08-1.488c-3.512-2.512-6.504-5.568-9.024-8.96
				c0.944-0.848,1.872-1.712,2.864-2.504c3.2-2.56,6.296-5.224,9.32-7.976C223.596,251.848,225.652,255.48,228.14,258.832z
				 M132.876,363.312c-31.256,0-62.056-10.568-86.728-29.76C31.316,322.016,21.66,305.664,18.66,287.52
				c8.04,2.496,16.472,3.792,24.888,3.792h25.424l-25.368-25.368c-12.672-12.672-21.032-28.504-24.336-45.728
				c8.84,4.64,18.744,7.096,29.024,7.096H71.14l-23.808-43.648C30.9,153.536,21.02,120.072,18.38,85.92l38.392,34.552
				c19.224,17.312,44.064,26.84,69.936,26.84c13.784,0,27.296,3.312,39.504,9.392c-16.024-2.968-33.112,0.032-47,9.296
				c-10.432,6.952-24.664,6.952-35.096,0L50.7,143.72l14.792,44.384c6.088,18.272,18.272,34.224,34.304,44.912
				c9.84,6.56,17.792,15.376,23.256,25.624c-12.088-4.832-25.032-7.328-38.232-7.328H62.348l47.544,47.544
				c2.968,2.976,5.08,6.696,6.096,10.776c4.368,17.48,20,29.68,38.016,29.68v-16c-10.656,0-19.904-7.224-22.496-17.56
				c-1.72-6.888-5.288-13.184-10.312-18.2l-18.36-18.36c10.784,2.272,21.072,6.584,30.376,12.784l17.208,11.472l-5.592-22.416
				c-5.264-21.048-18.104-39.28-36.168-51.32c-13.08-8.72-23.024-21.744-28-36.656l-0.24-0.72c14.928,7.44,33.536,6.4,47.76-3.088
				c14.904-9.928,35.12-10.416,50.464-1.2l21.72,13.032c-1.048,3.96-2.712,7.816-5.152,11.472c-2.624,3.944-4.608,8.2-6.168,12.592
				c-6.76-7.672-15.416-13.6-25.152-16.848c-5.92-1.984-12.104-2.984-18.36-2.984H121.66l26.232,34.976
				c3.72,4.96,5.768,11.104,5.768,17.304c0,15.032,7.464,28.984,19.968,37.312l0.696,0.464c-0.792,2.616-1.488,5.272-2.032,7.976
				c-1.744,8.752-2.632,17.704-2.632,26.608c0,5.216,0.368,10.408,0.96,15.56l-10.36,18.656c-1.736,3.128-3.664,6.136-5.592,9.144
				H132.876z M190.116,255.96c-3.6,4.376-6.752,9.088-9.408,14.088c-6.872-5.448-11.048-13.592-11.048-22.456
				c0-9.64-3.184-19.192-8.968-26.904l-6.328-8.44c1.504,0.328,3,0.728,4.472,1.224c8.832,2.944,16.536,8.824,21.696,16.568
				l5.368,8.056C186.34,244.296,187.764,250.312,190.116,255.96z M193.66,439.776c-6.352,5.448-25.008,19.536-48,19.536
				c-18.92,0-38.544-13.176-49.52-21.968c32.744-16.76,60.192-43.168,78.104-75.408l1.376-2.48
				c3.216,10.552,7.648,20.744,13.376,30.288l4.664,7.784V439.776z M225.66,468.448c-2.576-0.672-5.224-1.136-8-1.136
				s-5.424,0.464-8,1.136v-65.136h16V468.448z M289.66,468.448c-2.576-0.672-5.224-1.136-8-1.136s-5.424,0.464-8,1.136v-65.136h16
				V468.448z M296.612,381.512l-3.48,5.8H269.94l-0.312-0.472c-7.824-11.744-11.968-25.408-11.968-39.528h-16
				c0,14.12-4.144,27.784-11.968,39.528l-0.312,0.472h-23.192l-3.48-5.8c-11.152-18.592-17.048-39.88-17.048-61.56
				c0-7.856,0.784-15.752,2.328-23.464c1.864-9.328,5.68-18.08,11.024-25.808c3.056,3.648,6.552,6.96,10.496,9.776l40.152,28.688
				l40.16-28.68c3.952-2.824,7.448-6.128,10.496-9.776c5.344,7.728,9.16,16.48,11.024,25.808c1.536,7.704,2.32,15.6,2.32,23.456
				C313.66,341.632,307.764,362.92,296.612,381.512z M309.204,255.96c2.352-5.648,3.776-11.664,4.216-17.864l5.368-8.056
				c5.16-7.744,12.864-13.624,21.696-16.568c1.472-0.496,2.968-0.896,4.472-1.224l-6.328,8.44
				c-5.784,7.712-8.968,17.264-8.968,26.904c0,8.864-4.176,17.008-11.048,22.456C315.956,265.056,312.804,260.336,309.204,255.96z
				 M403.196,437.352c-10.952,8.792-30.544,21.96-49.536,21.96c-22.848,0-41.616-14.112-48-19.552v-42.232l4.664-7.776
				c5.728-9.544,10.16-19.736,13.376-30.288l1.376,2.48C342.996,394.176,370.444,420.592,403.196,437.352z M451.028,227.312
				c10.28,0,20.176-2.456,29.024-7.096c-3.312,17.216-11.664,33.056-24.336,45.728l-25.368,25.368h25.424
				c8.416,0,16.84-1.296,24.888-3.792c-3,18.152-12.656,34.496-27.488,46.032c-24.672,19.192-55.472,29.76-86.728,29.76h-21.792
				c-1.928-3-3.856-6.016-5.592-9.144l-10.36-18.656c0.592-5.152,0.96-10.344,0.96-15.56c0-8.904-0.888-17.856-2.64-26.608
				c-0.544-2.704-1.24-5.352-2.032-7.976l0.696-0.464c12.512-8.328,19.976-22.28,19.976-37.312c0-6.2,2.048-12.344,5.768-17.304
				l26.232-34.976h-23.872c-6.256,0-12.432,1-18.36,2.984c-9.752,3.248-18.408,9.184-25.176,16.864
				c-1.608-4.496-3.664-8.888-6.44-13.04c-2.272-3.4-3.864-7.136-4.88-11.032l21.736-13.04c15.344-9.208,35.472-8.8,50.568,1.272
				c14.024,9.344,32.72,10.448,47.656,3.008l-0.24,0.72c-4.968,14.912-14.912,27.936-28,36.656
				c-18.064,12.04-30.904,30.272-36.168,51.328l-5.592,22.416l17.208-11.472c9.304-6.2,19.592-10.512,30.376-12.784l-18.36,18.36
				c-5.024,5.016-8.584,11.32-10.312,18.2c-2.584,10.336-11.832,17.56-22.488,17.56v16c18.008,0,33.648-12.2,38.016-29.68
				c1.016-4.08,3.128-7.8,6.096-10.776l47.544-47.544H414.5c-13.208,0-26.144,2.496-38.232,7.328
				c5.472-10.248,13.416-19.056,23.256-25.624c16.032-10.688,28.208-26.64,34.304-44.904l14.792-44.384l-33.416,22.28
				c-10.432,6.952-24.552,7.024-35.2-0.072c-13.76-9.176-30.88-12.176-46.936-9.2c12.216-6.104,25.744-9.424,39.544-9.424
				c25.864,0,50.704-9.528,69.936-26.832l38.392-34.552c-2.648,34.152-12.52,67.616-28.952,97.744l-23.808,43.64H451.028z"/>
			<path d="M117.66,115.312c19.848,0,36-16.152,36-36c0-8.824-1.416-17.536-4.2-25.912l-10.32-30.936L128.292,44.16L97.66,3.312
				v25.576c0,7.848-2.304,15.448-6.656,21.984l-1.344,2.016c-5.232,7.848-8,16.992-8,26.424
				C81.66,99.16,97.812,115.312,117.66,115.312z M102.972,61.768l1.344-2.016c2.624-3.944,4.72-8.16,6.256-12.56l20.456,27.28
				l4.96-9.92c1.112,4.832,1.672,9.776,1.672,14.76c0,11.024-8.976,20-20,20s-20-8.976-20-20
				C97.66,73.048,99.492,66.976,102.972,61.768z"/>
			<path d="M381.66,115.312c19.848,0,36-16.152,36-36c0-9.432-2.768-18.568-8-26.424l-1.344-2.016
				c-4.352-6.536-6.656-14.136-6.656-21.984V3.312l-30.632,40.84L360.18,22.456L349.86,53.4c-2.784,8.376-4.2,17.088-4.2,25.912
				C345.66,99.16,361.812,115.312,381.66,115.312z M363.332,64.544l4.96,9.92l20.456-27.28c1.536,4.4,3.632,8.624,6.256,12.56
				l1.344,2.016c3.48,5.216,5.312,11.288,5.312,17.552c0,11.024-8.976,20-20,20s-20-8.976-20-20
				C361.66,74.32,362.22,69.384,363.332,64.544z"/>
		</g>
	</g>
</g>
<g>
</g>
<g>
</g>
<g>
</g>
<g>
</g>
<g>
</g>
<g>
</g>
<g>
</g>
<g>
</g>
<g>
</g>
<g>
</g>
<g>
</g>
<g>
</g>
<g>
</g>
<g>
</g>
<g>
</g>
</svg>
